Chapter 23 The Hadleyverse | R (BGU course)
…
The following example involve data.frame objects, but dplyr can handle other classes.
In particular data.tables from the data.table package (Dowle and Srinivasan 2017), which is designed for very large data sets.

dplyr can work with data stored in a database.
In which case, it will convert your command to the appropriate SQL syntax, and issue it to the database.
This has the advantage that (a) you do not need to know the specific SQL implementation of your database, and (b), you can enjoy the optimized algorithms provided by the database supplier.
For more on this, see the databses vignette.

The following examples are taken from Kevin Markham.
The nycflights13::flights has delay data for US flights.

library(nycflights13)
flights

## # A tibble: 336,776 x 19
##     year month   day dep_time sched_dep_time dep_delay arr_time sched_arr_time arr_delay carrier flight tailnum origin dest  air_time distance
##    <int> <int> <int>    <int>          <int>     <dbl>    <int>          <int>     <dbl> <chr>    <int> <chr>   <chr>  <chr>    <dbl>    <dbl>
##  1  2013     1     1      517            515         2      830            819        11 UA        1545 N14228  EWR    IAH        227     1400
##  2  2013     1     1      533            529         4      850            830        20 UA        1714 N24211  LGA    IAH        227     1416
##  3  2013     1     1      542            540         2      923            850        33 AA        1141 N619AA  JFK    MIA        160     1089
##  4  2013     1     1      544            545        -1     1004           1022       -18 B6         725 N804JB  JFK    BQN        183     1576
##  5  2013     1     1      554            600        -6      812            837       -25 DL         461 N668DN  LGA    ATL        116      762
##  6  2013     1     1      554            558        -4      740            728        12 UA        1696 N39463  EWR    ORD        150      719
##  7  2013     1     1      555            600        -5      913            854        19 B6         507 N516JB  EWR    FLL        158     1065
##  8  2013     1     1      557            600        -3      709            723       -14 EV        5708 N829AS  LGA    IAD         53      229
##  9  2013     1     1      557            600        -3      838            846        -8 B6          79 N593JB  JFK    MCO        140      944
## 10  2013     1     1      558            600        -2      753            745         8 AA         301 N3ALAA  LGA    ORD        138      733
## # ... with 336,766 more rows, and 3 more variables: hour <dbl>, minute <dbl>, time_hour <dttm>
…
We now perform operations on subgroups.
we group observations along the plane’s tail number (tailnum), and compute the count, average distance traveled, and average delay.
We group with group_by, and compute subgroup statistics with summarise.

by_tailnum <- group_by(flights, tailnum)

delay <- summarise(by_tailnum,
  count = n(),
  avg.dist = mean(distance, na.rm = TRUE),
  avg.delay = mean(arr_delay, na.rm = TRUE))

delay

## # A tibble: 4,044 x 4
##    tailnum count avg.dist avg.delay
##    <chr>   <int>    <dbl>     <dbl>
##  1 D942DN      4     854.    31.5  
##  2 N0EGMQ    371     676.     9.98 
##  3 N10156    153     758.    12.7  
##  4 N102UW     48     536.     2.94 
##  5 N103US     46     535.    -6.93 
##  6 N104UW     47     535.     1.80 
##  7 N10575    289     520.    20.7  
##  8 N105UW     45     525.    -0.267
##  9 N107US     41     529.    -5.73 
## 10 N108UW     60     534.    -1.25 
## # ... with 4,034 more rows
…
# select the subset of interesting flight data. 
flights2 <- flights %>% select(year:day, hour, origin, dest, tailnum, carrier) 

# join on left table with automatic matching.
flights2 %>% left_join(airlines) 

## Joining, by = "carrier"

## # A tibble: 336,776 x 9
##     year month   day  hour origin dest  tailnum carrier name                    
##    <int> <int> <int> <dbl> <chr>  <chr> <chr>   <chr>   <chr>                   
##  1  2013     1     1     5 EWR    IAH   N14228  UA      United Air Lines Inc.   
##  2  2013     1     1     5 LGA    IAH   N24211  UA      United Air Lines Inc.   
##  3  2013     1     1     5 JFK    MIA   N619AA  AA      American Airlines Inc.  
##  4  2013     1     1     5 JFK    BQN   N804JB  B6      JetBlue Airways         
##  5  2013     1     1     6 LGA    ATL   N668DN  DL      Delta Air Lines Inc.    
##  6  2013     1     1     5 EWR    ORD   N39463  UA      United Air Lines Inc.   
##  7  2013     1     1     6 EWR    FLL   N516JB  B6      JetBlue Airways         
##  8  2013     1     1     6 LGA    IAD   N829AS  EV      ExpressJet Airlines Inc.
##  9  2013     1     1     6 JFK    MCO   N593JB  B6      JetBlue Airways         
## 10  2013     1     1     6 LGA    ORD   N3ALAA  AA      American Airlines Inc.  
## # ... with 336,766 more rows

flights2 %>% left_join(weather) 

## Joining, by = c("year", "month", "day", "hour", "origin")

## # A tibble: 336,776 x 18
##     year month   day  hour origin dest  tailnum carrier  temp  dewp humid wind_dir wind_speed wind_gust precip pressure visib time_hour          
##    <dbl> <dbl> <int> <dbl> <chr>  <chr> <chr>   <chr>   <dbl> <dbl> <dbl>    <dbl>      <dbl>     <dbl>  <dbl>    <dbl> <dbl> <dttm>             
##  1  2013     1     1     5 EWR    IAH   N14228  UA       39.0  28.0  64.4      260       12.7      NA        0    1012.    10 2013-01-01 05:00:00
##  2  2013     1     1     5 LGA    IAH   N24211  UA       39.9  25.0  54.8      250       15.0      21.9      0    1011.    10 2013-01-01 05:00:00
##  3  2013     1     1     5 JFK    MIA   N619AA  AA       39.0  27.0  61.6      260       15.0      NA        0    1012.    10 2013-01-01 05:00:00
##  4  2013     1     1     5 JFK    BQN   N804JB  B6       39.0  27.0  61.6      260       15.0      NA        0    1012.    10 2013-01-01 05:00:00
##  5  2013     1     1     6 LGA    ATL   N668DN  DL       39.9  25.0  54.8      260       16.1      23.0      0    1012.    10 2013-01-01 06:00:00
##  6  2013     1     1     5 EWR    ORD   N39463  UA       39.0  28.0  64.4      260       12.7      NA        0    1012.    10 2013-01-01 05:00:00
##  7  2013     1     1     6 EWR    FLL   N516JB  B6       37.9  28.0  67.2      240       11.5      NA        0    1012.    10 2013-01-01 06:00:00
##  8  2013     1     1     6 LGA    IAD   N829AS  EV       39.9  25.0  54.8      260       16.1      23.0      0    1012.    10 2013-01-01 06:00:00
##  9  2013     1     1     6 JFK    MCO   N593JB  B6       37.9  27.0  64.3      260       13.8      NA        0    1013.    10 2013-01-01 06:00:00
## 10  2013     1     1     6 LGA    ORD   N3ALAA  AA       39.9  25.0  54.8      260       16.1      23.0      0    1012.    10 2013-01-01 06:00:00
## # ... with 336,766 more rows

# join with named matching
flights2 %>% left_join(planes, by = "tailnum") 

## # A tibble: 336,776 x 16
##    year.x month   day  hour origin dest  tailnum carrier year.y type                    manufacturer     model       engines seats speed engine   
##     <int> <int> <int> <dbl> <chr>  <chr> <chr>   <chr>    <int> <chr>                   <chr>            <chr>         <int> <int> <int> <chr>    
##  1   2013     1     1     5 EWR    IAH   N14228  UA        1999 Fixed wing multi engine BOEING           737-824           2   149    NA Turbo-fan
##  2   2013     1     1     5 LGA    IAH   N24211  UA        1998 Fixed wing multi engine BOEING           737-824           2   149    NA Turbo-fan
##  3   2013     1     1     5 JFK    MIA   N619AA  AA        1990 Fixed wing multi engine BOEING           757-223           2   178    NA Turbo-fan
##  4   2013     1     1     5 JFK    BQN   N804JB  B6        2012 Fixed wing multi engine AIRBUS           A320-232          2   200    NA Turbo-fan
##  5   2013     1     1     6 LGA    ATL   N668DN  DL        1991 Fixed wing multi engine BOEING           757-232           2   178    NA Turbo-fan
##  6   2013     1     1     5 EWR    ORD   N39463  UA        2012 Fixed wing multi engine BOEING           737-924ER         2   191    NA Turbo-fan
##  7   2013     1     1     6 EWR    FLL   N516JB  B6        2000 Fixed wing multi engine AIRBUS INDUSTRIE A320-232          2   200    NA Turbo-fan
##  8   2013     1     1     6 LGA    IAD   N829AS  EV        1998 Fixed wing multi engine CANADAIR         CL-600-2B19       2    55    NA Turbo-fan
##  9   2013     1     1     6 JFK    MCO   N593JB  B6        2004 Fixed wing multi engine AIRBUS           A320-232          2   200    NA Turbo-fan
## 10   2013     1     1     6 LGA    ORD   N3ALAA  AA          NA <NA>                    <NA>             <NA>             NA    NA    NA <NA>     
## # ... with 336,766 more rows

# join with explicit column matching
flights2 %>% left_join(airports, by= c("dest" = "faa")) 

## # A tibble: 336,776 x 15
##     year month   day  hour origin dest  tailnum carrier name                              lat   lon   alt    tz dst   tzone           
##    <int> <int> <int> <dbl> <chr>  <chr> <chr>   <chr>   <chr>                           <dbl> <dbl> <int> <dbl> <chr> <chr>           
##  1  2013     1     1     5 EWR    IAH   N14228  UA      George Bush Intercontinental     30.0 -95.3    97    -6 A     America/Chicago 
##  2  2013     1     1     5 LGA    IAH   N24211  UA      George Bush Intercontinental     30.0 -95.3    97    -6 A     America/Chicago 
##  3  2013     1     1     5 JFK    MIA   N619AA  AA      Miami Intl                       25.8 -80.3     8    -5 A     America/New_York
##  4  2013     1     1     5 JFK    BQN   N804JB  B6      <NA>                             NA    NA      NA    NA <NA>  <NA>            
##  5  2013     1     1     6 LGA    ATL   N668DN  DL      Hartsfield Jackson Atlanta Intl  33.6 -84.4  1026    -5 A     America/New_York
##  6  2013     1     1     5 EWR    ORD   N39463  UA      Chicago Ohare Intl               42.0 -87.9   668    -6 A     America/Chicago 
##  7  2013     1     1     6 EWR    FLL   N516JB  B6      Fort Lauderdale Hollywood Intl   26.1 -80.2     9    -5 A     America/New_York
##  8  2013     1     1     6 LGA    IAD   N829AS  EV      Washington Dulles Intl           38.9 -77.5   313    -5 A     America/New_York
##  9  2013     1     1     6 JFK    MCO   N593JB  B6      Orlando Intl                     28.4 -81.3    96    -5 A     America/New_York
## 10  2013     1     1     6 LGA    ORD   N3ALAA  AA      Chicago Ohare Intl               42.0 -87.9   668    -6 A     America/Chicago 
## # ... with 336,766 more rows
…
