Chapter 16 Parallel Computing | R (BGU course)
…
library(dplyr) 
system.time(delay<-flights_tbl %>% 
              group_by(tailnum) %>%
              summarise(
                count=n(),dist=mean(distance),delay=mean(arr_delay)) %>%
              filter(count>20, dist<2000, !is.na(delay)) %>% 
              collect())

##    user  system elapsed 
##   0.287   2.772   3.467

delay

## # A tibble: 2,961 x 4
##    tailnum count  dist  delay
##    <chr>   <dbl> <dbl>  <dbl>
##  1 N24211    130 1330.  7.7  
##  2 N793JB    283 1529.  4.72 
##  3 N657JB    285 1286.  5.03 
##  4 N633AA     24 1587. -0.625
##  5 N9EAMQ    248  675.  9.24 
##  6 N3GKAA     77 1247.  4.97 
##  7 N997DL     63  868.  4.90 
##  8 N318NB    202  814. -1.12 
##  9 N651JB    261 1408.  7.58 
## 10 N841UA     96 1208.  2.10 
## # … with 2,951 more rows
…
